Wrapping up
…
```r
library(tidyverse)
alc <- read_csv(here::here("data", "alcohol-adolescents.csv"))
```

---
# Data

```r
alc
```

```
## # A tibble: 246 x 6
##       id   age   coa  male   alcuse      peer
##    <dbl> <dbl> <dbl> <dbl>    <dbl>     <dbl>
##  1     1    14     1     0 1.732051 1.264911 
##  2     1    15     1     0 2        1.264911 
##  3     1    16     1     0 2        1.264911 
##  4     2    14     1     1 0        0.8944272
##  5     2    15     1     1 0        0.8944272
##  6     2    16     1     1 1        0.8944272
##  7     3    14     1     1 1        0.8944272
##  8     3    15     1     1 2        0.8944272
##  9     3    16     1     1 3.316625 0.8944272
## 10     4    14     1     1 0        1.788854 
## # … with 236 more rows
```
…
01:00

Load in the `three-lev.csv` data

--

```r
threelev <- read_csv(here::here("data", "three-lev.csv"))
threelev
```

```
## # A tibble: 7,230 x 12
##    schid       sid  size lowinc mobility female black hispanic retained grade  year   math
##    <dbl>     <dbl> <dbl>  <dbl>    <dbl>  <dbl> <dbl>    <dbl>    <dbl> <dbl> <dbl>  <dbl>
##  1  2020 273026452   380   40.3     12.5      0     0        1        0     2   0.5  1.146
##  2  2020 273026452   380   40.3     12.5      0     0        1        0     3   1.5  1.134
##  3  2020 273026452   380   40.3     12.5      0     0        1        0     4   2.5  2.3  
##  4  2020 273030991   380   40.3     12.5      0     0        0        0     0  -1.5 -1.303
##  5  2020 273030991   380   40.3     12.5      0     0        0        0     1  -0.5  0.439
##  6  2020 273030991   380   40.3     12.5      0     0        0        0     2   0.5  2.43 
##  7  2020 273030991   380   40.3     12.5      0     0        0        0     3   1.5  2.254
##  8  2020 273030991   380   40.3     12.5      0     0        0        0     4   2.5  3.873
##  9  2020 273059461   380   40.3     12.5      0     0        1        0     0  -1.5 -1.384
## 10  2020 273059461   380   40.3     12.5      0     0        1        0     1  -0.5  0.338
## # … with 7,220 more rows
```
…
# Finishing up from last class

---
# Reminder
Lung cancer data: Patients nested in doctors

```r
hdp <- read_csv("https://stats.idre.ucla.edu/stat/data/hdp.csv") %>% 
  janitor::clean_names() %>% 
  select(did, tumorsize, pain, lungcapacity, age, remission)
hdp
```

```
## # A tibble: 8,525 x 6
##      did tumorsize  pain lungcapacity      age remission
##    <dbl>     <dbl> <dbl>        <dbl>    <dbl>     <dbl>
##  1     1  67.98120     4    0.8010882 64.96824         0
##  2     1  64.70246     2    0.3264440 53.91714         0
##  3     1  51.56700     6    0.5650309 53.34730         0
##  4     1  86.43799     3    0.8484109 41.36804         0
##  5     1  53.40018     3    0.8864910 46.80042         0
##  6     1  51.65727     4    0.7010307 51.92936         0
##  7     1  78.91707     3    0.8908539 53.82926         0
##  8     1  69.83325     3    0.6608795 46.56223         0
##  9     1  62.85259     4    0.9088714 54.38936         0
## 10     1  71.77790     5    0.9593268 50.54465         0
## # … with 8,515 more rows
```
…
---

```r
pred_age_doctor
```

```
## # A tibble: 54,900 x 9
## # Groups:   did, age, tumorsize, lungcapacity, .row [549]
##      did   age tumorsize lungcapacity  .row .chain .iteration .draw     .value
##    <int> <int>     <dbl>        <dbl> <int>  <int>      <int> <int>      <dbl>
##  1     1    20  70.88067    0.7740865     1     NA         NA     7 0.06478647
##  2     1    20  70.88067    0.7740865     1     NA         NA    13 0.1094038 
##  3     1    20  70.88067    0.7740865     1     NA         NA    99 0.07673222
##  4     1    20  70.88067    0.7740865     1     NA         NA   113 0.06245461
##  5     1    20  70.88067    0.7740865     1     NA         NA   121 0.02183182
##  6     1    20  70.88067    0.7740865     1     NA         NA   122 0.1088385 
##  7     1    20  70.88067    0.7740865     1     NA         NA   141 0.08642317
##  8     1    20  70.88067    0.7740865     1     NA         NA   183 0.04355602
##  9     1    20  70.88067    0.7740865     1     NA         NA   224 0.2211663 
## 10     1    20  70.88067    0.7740865     1     NA         NA   288 0.08792308
## # … with 54,890 more rows
```
…
---
# Fixed effects

Not really "fixed", but rather just average relation

```r
fe <- lc %>% 
  spread_draws(b_Intercept, b_age, b_tumorsize, b_lungcapacity, 
               `b_age:tumorsize`)
fe
```

```
## # A tibble: 4,000 x 8
##    .chain .iteration .draw b_Intercept      b_age b_tumorsize b_lungcapacity `b_age:tumorsize`
##     <int>      <int> <int>       <dbl>      <dbl>       <dbl>          <dbl>             <dbl>
##  1      1          1     1    5.42858  -0.119206  -0.0544173      -0.362963       0.000883342 
##  2      1          2     2    4.46859  -0.100647  -0.0450108      -0.341147       0.000686135 
##  3      1          3     3    1.96492  -0.0468593 -0.0102471      -0.0702373     -0.000100602 
##  4      1          4     4    0.917227 -0.0301529  0.00952746     -0.0681794     -0.00045534  
##  5      1          5     5    1.53674  -0.0396987 -0.00207063     -0.067519      -0.000231016 
##  6      1          6     6    0.881689 -0.0345708  0.00102342      0.0516893     -0.000215422 
##  7      1          7     7    1.64537  -0.0490206 -0.00906014      0.144082      -0.0000381692
##  8      1          8     8    1.38195  -0.0418099 -0.00452064     -0.0829176     -0.000118016 
##  9      1          9     9    0.580196 -0.0293446  0.00953349     -0.214873      -0.000299422 
## 10      1         10    10    3.48012  -0.0843227 -0.0282885       0.226778       0.000286907 
## # … with 3,990 more rows
```
…
--

```r
did12_wider <- tibble(
  did1 = pred_did1, 
  did2 = pred_did2
) %>% 
  mutate(diff = did2 - did1)

did12_wider
```

```
## # A tibble: 4,000 x 3
##          did1        did2     diff
##         <dbl>       <dbl>    <dbl>
##  1 -4.732689   1.005471   5.73816 
##  2 -4.845796   0.8612836  5.70708 
##  3 -2.986972   0.4373794  3.424351
##  4 -0.9940453  0.1152017  1.109247
##  5 -5.773234   0.1754881  5.948722
##  6 -3.162519   0.6139410  3.77646 
##  7 -3.306486   0.6795638  3.98605 
##  8 -5.793359   0.3006396  6.093999
##  9 -4.294496  -0.07275537 4.221741
## 10 -1.697236   0.8960439  2.59328 
## # … with 3,990 more rows
```
…
```r
did3 <- filter(dids, did == 3)
pred_did3 <- pop_level + did3$r_did

did23 <- did12_wider %>% 
  select(-did1, -diff) %>% 
  mutate(did3 = pred_did3,
         diff = did3 - did2)
did23
```

```
## # A tibble: 4,000 x 3
##           did2        did3        diff
##          <dbl>       <dbl>       <dbl>
##  1  1.005471    0.8228108  -0.18266   
##  2  0.8612836   0.8277436  -0.03354000
##  3  0.4373794   1.004198    0.566819  
##  4  0.1152017   1.194783    1.079581  
##  5  0.1754881   1.432726    1.257238  
##  6  0.6139410   1.354041    0.7401000 
##  7  0.6795638   2.767964    2.0884    
##  8  0.3006396   1.548721    1.248081  
##  9 -0.07275537  2.912974    2.985729  
## 10  0.8960439  -0.06564811 -0.961692  
## # … with 3,990 more rows
```
…
So there's roughly an 86% chance that the odds of remission are higher with with `did` 3 than 2.

---
# Plot data

```r
pd23 <- did23 %>% 
  pivot_longer(did2:diff, 
               names_to = "Distribution",
               values_to = "Log-Odds")
pd23
```

```
## # A tibble: 12,000 x 2
##    Distribution  `Log-Odds`
##    <chr>              <dbl>
##  1 did2          1.005471  
##  2 did3          0.8228108 
##  3 diff         -0.18266   
##  4 did2          0.8612836 
##  5 did3          0.8277436 
##  6 diff         -0.03354000
##  7 did2          0.4373794 
##  8 did3          1.004198  
##  9 diff          0.566819  
## 10 did2          0.1152017 
## # … with 11,990 more rows
```
…
See [this](https://journal.r-project.org/archive/2018/RJ-2018-017/RJ-2018-017.pdf) paper for more complete information

---
# The data
Primary and secondary schools

```r
achievement <- read_csv(here::here("data", "pupils.csv"))
achievement
```

```
## # A tibble: 1,000 x 8
##    PUPIL primary_school_id secondary_school_id achievement sex    ses     primary_denominational secondary_denominational
##    <dbl>             <dbl>               <dbl>       <dbl> <chr>  <chr>   <chr>                  <chr>                   
##  1     1                 1                   2         6.6 female highest no                     no                      
##  2     2                 1                   1         5.7 male   lowest  no                     yes                     
##  3     3                 1                  17         4.5 male   2       no                     no                      
##  4     4                 1                   3         4.4 male   2       no                     no                      
##  5     5                 1                   4         5.8 male   3       no                     yes                     
##  6     6                 1                   4         5   female 4       no                     yes                     
##  7     7                 1                   4         4.9 male   3       no                     yes                     
##  8     8                 1                  17         5.3 female 2       no                     no                      
##  9     9                 1                  14         9   male   highest no                     yes                     
## 10    10                 1                  22         5.4 male   lowest  no                     no                      
## # … with 990 more rows
```
…
achievement %>% 
  select(PUPIL, ends_with("time"))
```

```
## # A tibble: 1,000 x 3
##    PUPIL primary_school_time secondary_school_time
##    <dbl>               <dbl>                 <dbl>
##  1     1          0.3709286             0.6290714 
##  2     2          0.5186330             0.4813670 
##  3     3          0.2722384             0.7277616 
##  4     4          0.6266984             0.3733016 
##  5     5          0.2887215             0.7112785 
##  6     6          0.1508292             0.8491708 
##  7     7          0.9014468             0.09855322
##  8     8          0.03131154            0.9686885 
##  9     9          0.7041820             0.2958180 
## 10    10          0.07281342            0.9271866 
## # … with 990 more rows
```
…
---
# Read in the data

```r
mobility <- read_csv(here::here("data", "mobility.csv"))
mobility
```

```
## # A tibble: 8,445 x 9
##       id `Item 1` `Item 2` `Item 3` `Item 4` `Item 5` `Item 6` `Item 7` `Item 8`
##    <dbl>    <dbl>    <dbl>    <dbl>    <dbl>    <dbl>    <dbl>    <dbl>    <dbl>
##  1     1        1        1        1        1        0        0        0        0
##  2     2        0        0        0        0        0        0        0        0
##  3     3        0        0        0        0        0        0        0        0
##  4     4        0        0        0        0        0        0        0        0
##  5     5        0        0        0        0        0        0        0        0
##  6     6        0        0        0        0        0        0        0        0
##  7     7        1        1        0        0        0        0        0        0
##  8     8        0        0        0        0        0        0        0        0
##  9     9        0        0        0        0        0        0        0        0
## 10    10        1        0        0        0        0        0        0        0
## # … with 8,435 more rows
```
…
--
* Move to long

---

```r
mobility_l <- mobility %>% 
  pivot_longer(-id,
               names_to = "item",
               values_to = "response")
mobility_l
```

```
## # A tibble: 67,560 x 3
##       id item   response
##    <dbl> <chr>     <dbl>
##  1     1 Item 1        1
##  2     1 Item 2        1
##  3     1 Item 3        1
##  4     1 Item 4        1
##  5     1 Item 5        0
##  6     1 Item 6        0
##  7     1 Item 7        0
##  8     1 Item 8        0
##  9     2 Item 1        0
## 10     2 Item 2        0
## # … with 67,550 more rows
```
…
lme4_theta <- ranef(onepl)$id

theta_compare <- tibble(
  ltm_theta = ltm_discrim*ltm_theta$score.dat$z1,
  lme4_theta = lme4_theta[ ,1]
)
theta_compare
```

```
## # A tibble: 8,445 x 2
##     ltm_theta lme4_theta
##         <dbl>      <dbl>
##  1  1.959870   1.942168 
##  2 -3.364090  -3.346008 
##  3 -3.364090  -3.346008 
##  4 -3.364090  -3.346008 
##  5 -3.364090  -3.346008 
##  6 -3.364090  -3.346008 
##  7 -0.4733693 -0.4751684
##  8 -3.364090  -3.346008 
##  9 -3.364090  -3.346008 
## 10 -1.879762  -1.878805 
## # … with 8,435 more rows
```
…
