Welcome!
…
---

```r
library(tidyverse)
sch_means <- hsb %>% 
  group_by(sch.id) %>% 
  summarize(sch_mean = mean(math, na.rm = TRUE),
            sch_mean_se = sd(math, na.rm = TRUE)/sqrt(n()))
sch_means
```

```
## # A tibble: 160 x 3
##    sch.id  sch_mean sch_mean_se
##     <int>     <dbl>       <dbl>
##  1   1224  9.715447   1.107521 
##  2   1288 13.5108     1.404369 
##  3   1296  7.635958   0.7723605
##  4   1308 16.2555     1.367186 
##  5   1317 13.17769    0.7884564
##  6   1358 11.20623    1.072893 
##  7   1374  9.728464   1.579465 
##  8   1433 19.71914    0.6551441
##  9   1436 18.11161    0.6856883
## 10   1461 16.84264    1.209306 
## # … with 150 more rows
```
…
```r
estimated_means <- estimated_means %>% 
  mutate(sch.id = as.integer(rownames(.))) %>% 
  rename(intercept = `(Intercept)`)

left_join(sch_means, estimated_means)
```

```
## Joining, by = "sch.id"
```

```
## # A tibble: 160 x 4
##    sch.id  sch_mean sch_mean_se intercept
##     <int>     <dbl>       <dbl>     <dbl>
##  1   1224  9.715447   1.107521   9.973039
##  2   1288 13.5108     1.404369  13.37638 
##  3   1296  7.635958   0.7723605  8.068508
##  4   1308 16.2555     1.367186  15.58549 
##  5   1317 13.17769    0.7884564 13.13092 
##  6   1358 11.20623    1.072893  11.39446 
##  7   1374  9.728464   1.579465  10.13462 
##  8   1433 19.71914    0.6551441 18.90522 
##  9   1436 18.11161    0.6856883 17.59908 
## 10   1461 16.84264    1.209306  16.33355 
## # … with 150 more rows
```
…
