Data structuring and basic models
…
# Restructuring data 

---
# First, load the data

```r
library(tidyverse)

curran <- read_csv(here::here("data", "curran.csv"))
curran
```

```
## # A tibble: 405 x 15
##       id anti1 anti2 anti3 anti4    read1 read2     read3     read4 kidgen momage kidage homecog homeemo  nmis
##    <dbl> <dbl> <dbl> <dbl> <dbl>    <dbl> <dbl>     <dbl>     <dbl>  <dbl>  <dbl>  <dbl>   <dbl>   <dbl> <dbl>
##  1    22     1     2    NA    NA 2.1        3.9 NA        NA             0     28   6.08      13      10     4
##  2    34     3     6     4     5 2.1        2.9  4.5       4.5           1     28   6.83       9       9     0
##  3    58     0     2     0     1 2.300000   4.5  4.2       4.600000      0     28   6.5        9       6     0
##  4   122     0     3     1     1 3.7        8   NA        NA             1     28   7.83      13      10     2
##  5   125     1     1     2     1 2.300000   3.8  4.3       6.2           0     29   7.42      10       8     0
##  6   133     3     4     3     5 1.8        2.6  4.100000  4             1     28   6.75       8       9     0
##  7   163     5     4     5     5 3.5        4.8  5.8       7.5           1     28   7.17      10      10     0
##  8   190     0    NA    NA     0 2.9        6.1 NA        NA             0     28   6.67       9       8     4
##  9   227     0     0     2     1 1.8        3.8  4        NA             0     29   6.25      12      10     1
## 10   248     1     2     2     0 3.5        5.7  7         6.9           0     28   7.5        9       9     0
## # … with 395 more rows
```
…
.footnote[Image from [R for Data Science](https://r4ds.had.co.nz/tidy-data.html)]

---
# Let's start easy

First, let's select just the ID variable and the reading scores

```r
read <- curran %>% 
  select(id, starts_with("read"))
read
```

```
## # A tibble: 405 x 5
##       id    read1 read2     read3     read4
##    <dbl>    <dbl> <dbl>     <dbl>     <dbl>
##  1    22 2.1        3.9 NA        NA       
##  2    34 2.1        2.9  4.5       4.5     
##  3    58 2.300000   4.5  4.2       4.600000
##  4   122 3.7        8   NA        NA       
##  5   125 2.300000   3.8  4.3       6.2     
##  6   133 1.8        2.6  4.100000  4       
##  7   163 3.5        4.8  5.8       7.5     
##  8   190 2.9        6.1 NA        NA       
##  9   227 1.8        3.8  4        NA       
## 10   248 3.5        5.7  7         6.9     
## # … with 395 more rows
```
…
02:00

---
# Moving to longer

```r
read %>% 
  pivot_longer(cols = read1:read4,
               names_to = "timepoint",
               values_to = "score") 
```

```
## # A tibble: 1,620 x 3
##       id timepoint     score
##    <dbl> <chr>         <dbl>
##  1    22 read1      2.1     
##  2    22 read2      3.9     
##  3    22 read3     NA       
##  4    22 read4     NA       
##  5    34 read1      2.1     
##  6    34 read2      2.9     
##  7    34 read3      4.5     
##  8    34 read4      4.5     
##  9    58 read1      2.300000
## 10    58 read2      4.5     
## # … with 1,610 more rows
```

---
# Alternative
You can also specify the columns that should *not* be pivoted

```r
read %>% 
  pivot_longer(-id,
               names_to = "timepoint",
               values_to = "score")
```

```
## # A tibble: 1,620 x 3
##       id timepoint     score
##    <dbl> <chr>         <dbl>
##  1    22 read1      2.1     
##  2    22 read2      3.9     
##  3    22 read3     NA       
##  4    22 read4     NA       
##  5    34 read1      2.1     
##  6    34 read2      2.9     
##  7    34 read3      4.5     
##  8    34 read4      4.5     
##  9    58 read1      2.300000
## 10    58 read2      4.5     
## # … with 1,610 more rows
```
…
.gray[Why did I subtract 1?]

```r
read %>% 
  pivot_longer(-id,
               names_to = "timepoint",
               values_to = "score") %>% 
  mutate(timepoint = parse_number(timepoint) - 1)
```

```
## # A tibble: 1,620 x 3
##       id timepoint     score
##    <dbl>     <dbl>     <dbl>
##  1    22         0  2.1     
##  2    22         1  3.9     
##  3    22         2 NA       
##  4    22         3 NA       
##  5    34         0  2.1     
##  6    34         1  2.9     
##  7    34         2  4.5     
##  8    34         3  4.5     
##  9    58         0  2.300000
## 10    58         1  4.5     
## # … with 1,610 more rows
```
---
# Transform during the pivot

```r
read %>% 
  pivot_longer(-id,
               names_to = "timepoint",
               values_to = "score",
*              names_transform = list(
*                timepoint = parse_number)
*              )
```

```
## # A tibble: 1,620 x 3
##       id timepoint     score
##    <dbl>     <dbl>     <dbl>
##  1    22         1  2.1     
##  2    22         2  3.9     
##  3    22         3 NA       
##  4    22         4 NA       
##  5    34         1  2.1     
##  6    34         2  2.9     
##  7    34         3  4.5     
##  8    34         4  4.5     
##  9    58         1  2.300000
## 10    58         2  4.5     
## # … with 1,610 more rows
```
…
```r
sub1 <- function(x) parse_number(x) - 1

read %>% 
  pivot_longer(-id,
               names_to = "timepoint",
               values_to = "score",
               names_transform = list(timepoint = sub1)) 
```

```
## # A tibble: 1,620 x 3
##       id timepoint     score
##    <dbl>     <dbl>     <dbl>
##  1    22         0  2.1     
##  2    22         1  3.9     
##  3    22         2 NA       
##  4    22         3 NA       
##  5    34         0  2.1     
##  6    34         1  2.9     
##  7    34         2  4.5     
##  8    34         3  4.5     
##  9    58         0  2.300000
## 10    58         1  4.5     
## # … with 1,610 more rows
```
---
# Yet another approach
This one doesn't subtract 1, however

```r
read %>% 
  pivot_longer(-id,
               names_to = "timepoint",
               values_to = "score",
*              names_prefix = "read",
*              names_ptype = list(timepoint = "numeric"))
```

```
## # A tibble: 1,620 x 3
##       id timepoint     score
##    <dbl> <chr>         <dbl>
##  1    22 1          2.1     
##  2    22 2          3.9     
##  3    22 3         NA       
##  4    22 4         NA       
##  5    34 1          2.1     
##  6    34 2          2.9     
##  7    34 3          4.5     
##  8    34 4          4.5     
##  9    58 1          2.300000
## 10    58 2          4.5     
## # … with 1,610 more rows
```
…
---
# Now let's move it back
Use `pivot_wider()` instead

```r
l %>% 
  pivot_wider(names_from = timepoint, 
              values_from = score)
```

```
## # A tibble: 405 x 5
##       id      `0`   `1`       `2`       `3`
##    <dbl>    <dbl> <dbl>     <dbl>     <dbl>
##  1    22 2.1        3.9 NA        NA       
##  2    34 2.1        2.9  4.5       4.5     
##  3    58 2.300000   4.5  4.2       4.600000
##  4   122 3.7        8   NA        NA       
##  5   125 2.300000   3.8  4.3       6.2     
##  6   133 1.8        2.6  4.100000  4       
##  7   163 3.5        4.8  5.8       7.5     
##  8   190 2.9        6.1 NA        NA       
##  9   227 1.8        3.8  4        NA       
## 10   248 3.5        5.7  7         6.9     
## # … with 395 more rows
```

---
# Challenge
Let's go back to the full `curran` data. See if you can get your data to look like the below.

There are, again, multiple ways to do this, including only through pivot_longer

```
## # A tibble: 3,240 x 10
##       id kidgen momage kidage homecog homeemo  nmis variable timepoint value
##    <dbl>  <dbl>  <dbl>  <dbl>   <dbl>   <dbl> <dbl> <chr>        <dbl> <dbl>
##  1    22      0     28   6.08      13      10     4 anti             0   1  
##  2    22      0     28   6.08      13      10     4 anti             1   2  
##  3    22      0     28   6.08      13      10     4 anti             2  NA  
##  4    22      0     28   6.08      13      10     4 anti             3  NA  
##  5    22      0     28   6.08      13      10     4 read             0   2.1
##  6    22      0     28   6.08      13      10     4 read             1   3.9
##  7    22      0     28   6.08      13      10     4 read             2  NA  
##  8    22      0     28   6.08      13      10     4 read             3  NA  
##  9    34      1     28   6.83       9       9     0 anti             0   3  
## 10    34      1     28   6.83       9       9     0 anti             1   6  
## # … with 3,230 more rows
```

06:00

---
# More transforming
Our data is probably still not in the format we want. Can you get it in the format like the below?

```
## # A tibble: 1,620 x 10
##       id kidgen momage kidage homecog homeemo  nmis timepoint  anti      read
##    <dbl>  <dbl>  <dbl>  <dbl>   <dbl>   <dbl> <dbl>     <dbl> <dbl>     <dbl>
##  1    22      0     28   6.08      13      10     4         0     1  2.1     
##  2    22      0     28   6.08      13      10     4         1     2  3.9     
##  3    22      0     28   6.08      13      10     4         2    NA NA       
##  4    22      0     28   6.08      13      10     4         3    NA NA       
##  5    34      1     28   6.83       9       9     0         0     3  2.1     
##  6    34      1     28   6.83       9       9     0         1     6  2.9     
##  7    34      1     28   6.83       9       9     0         2     4  4.5     
##  8    34      1     28   6.83       9       9     0         3     5  4.5     
##  9    58      0     28   6.5        9       6     0         0     0  2.300000
## 10    58      0     28   6.5        9       6     0         1     2  4.5     
## # … with 1,610 more rows
```

04:00

---
# Another example
### Read in the letter sounds data

```r
ls <- read_csv(here::here("data", "ls19.csv"))
ls
```

```
## # A tibble: 962 x 13
##    county       distid dist_name          instid inst_name          inst_type asian black_african_american hispanic_latino american_indian_alaska_native
##    <chr>         <dbl> <chr>               <dbl> <chr>              <chr>     <dbl>                  <dbl>           <dbl>                         <dbl>
##  1 All Counties   9999 Statewide            9999 Statewide          State      11.8                    7          4.100000                      5.100000
##  2 Baker          1894 Baker SD 5J          1894 Baker SD 5J        District   NA                     NA         14.6                          NA       
##  3 Baker          1895 Huntington SD 16J    1895 Huntington SD 16J  District   NA                     NA         NA                            NA       
##  4 Baker          1896 Burnt River SD 30J   1896 Burnt River SD 30J District   NA                     NA         NA                            NA       
##  5 Baker          1897 Pine Eagle SD 61     1897 Pine Eagle SD 61   District   NA                     NA         NA                            NA       
##  6 Benton         1898 Monroe SD 1J         1898 Monroe SD 1J       District   NA                     NA         NA                            NA       
##  7 Benton         1899 Alsea SD 7J          1899 Alsea SD 7J        District   NA                     NA         NA                            NA       
##  8 Benton         1900 Philomath SD 17J     1900 Philomath SD 17J   District   NA                     NA          5.8                          NA       
##  9 Benton         1901 Corvallis SD 509J    1901 Corvallis SD 509J  District   13.8                   10.4        7.8                          NA       
## 10 Clackamas      1902 Clackamas ESD        1902 Clackamas ESD      District   NA                     NA         NA                            NA       
## # … with 952 more rows, and 3 more variables: multi_racial <dbl>, native_hawaiian_pacific_islander <dbl>, white <dbl>
```
…
---
# Self-regulation data

* Same basic data with a different outcome and a different structure. 

* Try restructuring this one

```r
selfreg <- read_csv(here::here("data", "selfreg19.csv"))
selfreg
```

```
## # A tibble: 6,734 x 13
##    county       distid dist_name   instid inst_name   inst_type selfreg_score Asian Black.African.American Hispanic.Latino Multi.Racial
##    <chr>         <dbl> <chr>        <dbl> <chr>       <chr>             <dbl> <dbl>                  <dbl>           <dbl>        <dbl>
##  1 All Counties   9999 Statewide     9999 Statewide   State               3.7     1                      0               0            0
##  2 All Counties   9999 Statewide     9999 Statewide   State               3.3     0                      1               0            0
##  3 All Counties   9999 Statewide     9999 Statewide   State               3.4     0                      0               1            0
##  4 All Counties   9999 Statewide     9999 Statewide   State               3.3     0                      0               0            0
##  5 All Counties   9999 Statewide     9999 Statewide   State               3.5     0                      0               0            1
##  6 All Counties   9999 Statewide     9999 Statewide   State               3.4     0                      0               0            0
##  7 All Counties   9999 Statewide     9999 Statewide   State               3.5     0                      0               0            0
##  8 Baker          1894 Baker SD 5J   1894 Baker SD 5J District           NA       1                      0               0            0
##  9 Baker          1894 Baker SD 5J   1894 Baker SD 5J District           NA       0                      1               0            0
## 10 Baker          1894 Baker SD 5J   1894 Baker SD 5J District            3.9     0                      0               1            0
## # … with 6,724 more rows, and 2 more variables: Native.Hawaiian.Pacific.Islander <dbl>, White <dbl>
```
…
---
# Model fitting
* We could start with a fully unconditional model (not unconditional growth), but that's really a misspecification in this case - we know we have to account for time.

* Let's first fit a model with random intercepts

--
* A reminder of what the data look like

```r
d
```

```
## # A tibble: 1,620 x 10
##       id kidgen momage kidage homecog homeemo  nmis timepoint  anti      read
##    <dbl>  <dbl>  <dbl>  <dbl>   <dbl>   <dbl> <dbl>     <dbl> <dbl>     <dbl>
##  1    22      0     28   6.08      13      10     4         0     1  2.1     
##  2    22      0     28   6.08      13      10     4         1     2  3.9     
##  3    22      0     28   6.08      13      10     4         2    NA NA       
##  4    22      0     28   6.08      13      10     4         3    NA NA       
##  5    34      1     28   6.83       9       9     0         0     3  2.1     
##  6    34      1     28   6.83       9       9     0         1     6  2.9     
##  7    34      1     28   6.83       9       9     0         2     4  4.5     
##  8    34      1     28   6.83       9       9     0         3     5  4.5     
##  9    58      0     28   6.5        9       6     0         0     0  2.300000
## 10    58      0     28   6.5        9       6     0         1     2  4.5     
## # … with 1,610 more rows
```
…
