Predictions and visualizations
…
You try first

02:00

--

```r
library(tidyverse)
popular <- read_csv(here::here("data", "popularity.csv"))
popular
```

```
## # A tibble: 2,000 x 7
##    pupil class extrav sex    texp popular popteach
##    <dbl> <dbl>  <dbl> <chr> <dbl>   <dbl>    <dbl>
##  1     1     1      5 girl     24     6.3        6
##  2     2     1      7 boy      24     4.9        5
##  3     3     1      4 girl     24     5.3        6
##  4     4     1      3 girl     24     4.7        5
##  5     5     1      5 girl     24     6          6
##  6     6     1      4 boy      24     4.7        5
##  7     7     1      5 boy      24     5.9        5
##  8     8     1      4 boy      24     4.2        5
##  9     9     1      5 boy      24     5.2        5
## 10    10     1      5 boy      24     3.9        3
## # … with 1,990 more rows
```
…
---
# Random effects
## Pop Quiz
What's the difference between the output from below and the output on the next slide?

```r
tidy(m0, effects = "ran_vals")
```

```
## # A tibble: 100 x 6
##    effect   group level term            estimate std.error
##    <chr>    <chr> <chr> <chr>              <dbl>     <dbl>
##  1 ran_vals class 1     (Intercept) -0.002630828 0.2370649
##  2 ran_vals class 2     (Intercept) -0.8949875   0.2370649
##  3 ran_vals class 3     (Intercept) -0.3496155   0.2487845
##  4 ran_vals class 4     (Intercept)  0.3318175   0.2222273
##  5 ran_vals class 5     (Intercept)  0.1919485   0.2317938
##  6 ran_vals class 6     (Intercept) -0.6833977   0.2370649
##  7 ran_vals class 7     (Intercept) -0.8062842   0.2317938
##  8 ran_vals class 8     (Intercept) -1.019181    0.2370649
##  9 ran_vals class 9     (Intercept) -0.3844123   0.2370649
## 10 ran_vals class 10    (Intercept)  0.2226622   0.2178678
## # … with 90 more rows
```

---

```r
tidy(m0, effects = "ran_coefs")
```

```
## # A tibble: 100 x 5
##    effect    group level term        estimate
##    <chr>     <chr> <chr> <chr>          <dbl>
##  1 ran_coefs class 1     (Intercept) 5.075229
##  2 ran_coefs class 2     (Intercept) 4.182872
##  3 ran_coefs class 3     (Intercept) 4.728244
##  4 ran_coefs class 4     (Intercept) 5.409677
##  5 ran_coefs class 5     (Intercept) 5.269808
##  6 ran_coefs class 6     (Intercept) 4.394462
##  7 ran_coefs class 7     (Intercept) 4.271575
##  8 ran_coefs class 8     (Intercept) 4.058678
##  9 ran_coefs class 9     (Intercept) 4.693447
## 10 ran_coefs class 10    (Intercept) 5.300522
## # … with 90 more rows
```
…
---
class: inverse-red midle
# Making predictions "by hand"

---
# Reminder
Our raw data looks like this

```r
popular
```

```
## # A tibble: 2,000 x 7
##    pupil class extrav sex    texp popular popteach
##    <dbl> <dbl>  <dbl> <chr> <dbl>   <dbl>    <dbl>
##  1     1     1      5 girl     24     6.3        6
##  2     2     1      7 boy      24     4.9        5
##  3     3     1      4 girl     24     5.3        6
##  4     4     1      3 girl     24     4.7        5
##  5     5     1      5 girl     24     6          6
##  6     6     1      4 boy      24     4.7        5
##  7     7     1      5 boy      24     5.9        5
##  8     8     1      4 boy      24     4.2        5
##  9     9     1      5 boy      24     5.2        5
## 10    10     1      5 boy      24     3.9        3
## # … with 1,990 more rows
```
…
--
Now try creating a new column in the data with the model predictions for these students. Specify `newdata = first_three` to only make the predictions for those cases.

02:00

---

```r
first_three %>% 
  mutate(model_pred = predict(m, newdata = first_three))
```

```
## # A tibble: 30 x 9
##      sid school district group  treatment  prop_low  wave    score model_pred
##    <int>  <int>    <int> <chr>  <fct>         <dbl> <dbl>    <dbl>      <dbl>
##  1     1      1        1 medium 1         0.1428571     0 102.2686   101.9955
##  2     1      1        1 medium 1         0.1428571     1 102.0135   102.1572
##  3     1      1        1 medium 1         0.1428571     2 102.5216   102.3189
##  4     1      1        1 medium 1         0.1428571     3 102.2792   102.4806
##  5     1      1        1 medium 1         0.1428571     4 102.2834   102.6423
##  6     1      1        1 medium 1         0.1428571     5 102.7963   102.8040
##  7     1      1        1 medium 1         0.1428571     6 103.0441   102.9657
##  8     1      1        1 medium 1         0.1428571     7 102.8868   103.1274
##  9     1      1        1 medium 1         0.1428571     8 103.9101   103.2891
## 10     1      1        1 medium 1         0.1428571     9 103.2392   103.4508
## # … with 20 more rows
```
…
---

```r
bd
```

```
## # A tibble: 39,000 x 4
##      sid  wave bootstrap_sample    score
##    <int> <int>            <dbl>    <dbl>
##  1     1     0                1 102.1749
##  2     1     1                1 102.3497
##  3     1     2                1 102.5245
##  4     1     3                1 102.6992
##  5     1     4                1 102.8740
##  6     1     5                1 103.0488
##  7     1     6                1 103.2235
##  8     1     7                1 103.3983
##  9     1     8                1 103.5731
## 10     1     9                1 103.7478
## # … with 38,990 more rows
```
…
---
# Prefer ribbons?

```r
bd_ribbons <- bd %>% 
  group_by(sid, wave) %>% 
  summarize(quantile = quantile(score, c(0.025, 0.975)),
            group = c("lower", "upper")) %>% 
  pivot_wider(names_from = "group", values_from = "quantile")
bd_ribbons
```

```
## # A tibble: 39 x 4
## # Groups:   sid, wave [39]
##      sid  wave    lower    upper
##    <int> <int>    <dbl>    <dbl>
##  1     1     0 101.4553 102.4854
##  2     1     1 101.7114 102.5782
##  3     1     2 101.9408 102.6748
##  4     1     3 102.1633 102.7898
##  5     1     4 102.3576 102.9110
##  6     1     5 102.5236 103.0809
##  7     1     6 102.6428 103.2611
##  8     1     7 102.7468 103.4728
##  9     1     8 102.8555 103.6996
## 10     1     9 102.9428 103.9153
## # … with 29 more rows
```
…
There are many ways to create the sample, here's one:

```r
samp <- sim_longitudinal %>% 
  filter(school %in% 1:4) %>% 
  group_by(school, sid) %>% 
  nest()
samp
```

```
## # A tibble: 28 x 3
## # Groups:   sid, school [28]
##      sid school data             
##    <int>  <int> <list>           
##  1     1      1 <tibble [10 × 6]>
##  2    33      3 <tibble [10 × 6]>
##  3    34      4 <tibble [10 × 6]>
##  4    46      1 <tibble [10 × 6]>
##  5    61      1 <tibble [10 × 6]>
##  6    77      2 <tibble [10 × 6]>
##  7    78      3 <tibble [10 × 6]>
##  8    91      1 <tibble [10 × 6]>
##  9    93      3 <tibble [10 × 6]>
## 10     2      2 <tibble [10 × 6]>
## # … with 18 more rows
```
…
---
# unnest

```r
set.seed(42)
samp <- samp %>% 
  group_by(school) %>% 
  sample_n(5) %>% 
  unnest(data) %>% 
  ungroup()
samp
```

```
## # A tibble: 200 x 8
##      sid school district group  treatment  prop_low  wave    score
##    <int>  <int>    <int> <chr>  <fct>         <dbl> <dbl>    <dbl>
##  1     1      1        1 medium 1         0.1428571     0 102.2686
##  2     1      1        1 medium 1         0.1428571     1 102.0135
##  3     1      1        1 medium 1         0.1428571     2 102.5216
##  4     1      1        1 medium 1         0.1428571     3 102.2792
##  5     1      1        1 medium 1         0.1428571     4 102.2834
##  6     1      1        1 medium 1         0.1428571     5 102.7963
##  7     1      1        1 medium 1         0.1428571     6 103.0441
##  8     1      1        1 medium 1         0.1428571     7 102.8868
##  9     1      1        1 medium 1         0.1428571     8 103.9101
## 10     1      1        1 medium 1         0.1428571     9 103.2392
## # … with 190 more rows
```

---
# Make prediction

```r
samp %>% 
  mutate(pred = predict(m1a, newdata = samp))
```

```
## # A tibble: 200 x 9
##      sid school district group  treatment  prop_low  wave    score     pred
##    <int>  <int>    <int> <chr>  <fct>         <dbl> <dbl>    <dbl>    <dbl>
##  1     1      1        1 medium 1         0.1428571     0 102.2686 102.0541
##  2     1      1        1 medium 1         0.1428571     1 102.0135 102.2029
##  3     1      1        1 medium 1         0.1428571     2 102.5216 102.3516
##  4     1      1        1 medium 1         0.1428571     3 102.2792 102.5004
##  5     1      1        1 medium 1         0.1428571     4 102.2834 102.6492
##  6     1      1        1 medium 1         0.1428571     5 102.7963 102.7980
##  7     1      1        1 medium 1         0.1428571     6 103.0441 102.9468
##  8     1      1        1 medium 1         0.1428571     7 102.8868 103.0955
##  9     1      1        1 medium 1         0.1428571     8 103.9101 103.2443
## 10     1      1        1 medium 1         0.1428571     9 103.2392 103.3931
## # … with 190 more rows
```
…
