Variance-Covariance Matrices
…
* `\(n\)` = 35 people
* Each completed a cognitive inventory on "opposites naming"
* At first time point, participants also completed a general cognitive measure

---
# Read in data

```r
willett <- read_csv(here::here("data", "willett-1988.csv"))
willett
```

```
## # A tibble: 140 x 4
##       id  time   opp   cog
##    <dbl> <dbl> <dbl> <dbl>
##  1     1     0   205   137
##  2     1     1   217   137
##  3     1     2   268   137
##  4     1     3   302   137
##  5     2     0   219   123
##  6     2     1   243   123
##  7     2     2   279   123
##  8     2     3   302   123
##  9     3     0   142   129
## 10     3     1   212   129
## # … with 130 more rows
```
…
