Variance-Covariance Matrices
…
```r
lmer(Reaction ~ Days + (Days|Subject), data = sleepstudy)
```

---
# New data

```r
sim3 <- read_csv(here::here("data", "sim3level.csv"))
sim3
```

```
## # A tibble: 570 x 6
##        Math ActiveTime ClassSize Classroom School StudentID
##       <dbl>      <dbl>     <dbl>     <dbl> <chr>      <dbl>
##  1 55.42604 0.06913359        18         1 Sch1           1
##  2 54.34306 0.08462063        18         1 Sch1           2
##  3 61.42570 0.1299456         18         1 Sch1           3
##  4 56.12271 0.7461320         18         1 Sch1           4
##  5 53.34900 0.03887918        18         1 Sch1           5
##  6 57.99773 0.6856354         18         1 Sch1           6
##  7 54.46326 0.1439774         18         1 Sch1           7
##  8 64.20517 0.8910800         18         1 Sch1           8
##  9 54.49117 0.08963612        18         1 Sch1           9
## 10 57.87599 0.03773272        18         1 Sch1          10
## # … with 560 more rows
```

01:00

.footnote[Data obtained [here](http://alexanderdemos.org/Mixed5.html)]

---
# A bit of a problem

```r
sim3 %>% 
  count(Classroom, School)
```

```
## # A tibble: 30 x 3
##    Classroom School     n
##        <dbl> <chr>  <int>
##  1         1 Sch1      18
##  2         1 Sch2      18
##  3         1 Sch3      19
##  4         2 Sch1      14
##  5         2 Sch2      18
##  6         2 Sch3      24
##  7         3 Sch1      20
##  8         3 Sch2      15
##  9         3 Sch3      20
## 10         4 Sch1      14
## # … with 20 more rows
```

---
# Make classroom unique
We could handle this with our model syntax, but nested IDs like this always makes me nervous. Let's make them unique.

--

```r
sim3 <- sim3 %>% 
  mutate(class_id = paste0("class", Classroom, ":", School))
sim3
```

```
## # A tibble: 570 x 7
##        Math ActiveTime ClassSize Classroom School StudentID class_id   
##       <dbl>      <dbl>     <dbl>     <dbl> <chr>      <dbl> <chr>      
##  1 55.42604 0.06913359        18         1 Sch1           1 class1:Sch1
##  2 54.34306 0.08462063        18         1 Sch1           2 class1:Sch1
##  3 61.42570 0.1299456         18         1 Sch1           3 class1:Sch1
##  4 56.12271 0.7461320         18         1 Sch1           4 class1:Sch1
##  5 53.34900 0.03887918        18         1 Sch1           5 class1:Sch1
##  6 57.99773 0.6856354         18         1 Sch1           6 class1:Sch1
##  7 54.46326 0.1439774         18         1 Sch1           7 class1:Sch1
##  8 64.20517 0.8910800         18         1 Sch1           8 class1:Sch1
##  9 54.49117 0.08963612        18         1 Sch1           9 class1:Sch1
## 10 57.87599 0.03773272        18         1 Sch1          10 class1:Sch1
## # … with 560 more rows
```
…
* `\(n\)` = 35 people
* Each completed a cognitive inventory on "opposites naming"
* At first time point, participants also completed a general cognitive measure

---
# Read in data

```r
willett <- read_csv(here::here("data", "willett-1988.csv"))
willett
```

```
## # A tibble: 140 x 4
##       id  time   opp   cog
##    <dbl> <dbl> <dbl> <dbl>
##  1     1     0   205   137
##  2     1     1   217   137
##  3     1     2   268   137
##  4     1     3   302   137
##  5     2     0   219   123
##  6     2     1   243   123
##  7     2     2   279   123
##  8     2     3   302   123
##  9     3     0   142   129
## 10     3     1   212   129
## # … with 130 more rows
```
…
First, use one-hot encoding for time

Same as dummy-coding, but you use *all* the levels.

```r
w <- willett %>% 
  mutate(t0 = ifelse(time == 0, 1, 0),
         t1 = ifelse(time == 1, 1, 0),
         t2 = ifelse(time == 2, 1, 0),
         t3 = ifelse(time == 3, 1, 0))
w
```

```
## # A tibble: 140 x 8
##       id  time   opp   cog    t0    t1    t2    t3
##    <dbl> <dbl> <dbl> <dbl> <dbl> <dbl> <dbl> <dbl>
##  1     1     0   205   137     1     0     0     0
##  2     1     1   217   137     0     1     0     0
##  3     1     2   268   137     0     0     1     0
##  4     1     3   302   137     0     0     0     1
##  5     2     0   219   123     1     0     0     0
##  6     2     1   243   123     0     1     0     0
##  7     2     2   279   123     0     0     1     0
##  8     2     3   302   123     0     0     0     1
##  9     3     0   142   129     1     0     0     0
## 10     3     1   212   129     0     1     0     0
## # … with 130 more rows
```
…
