Modeling Growth 1
…
---
# Move to long

```r
l <- d %>% 
  pivot_longer(
    cols = starts_with("g"),
    names_to = "timepoint",
    values_to = "score"
  )
l
```

```
## # A tibble: 202,500 x 7
## # Groups:   distid [100]
##    distid scid  sid   sch_mean_start dist_mean_start timepoint    score
##     <dbl> <chr> <chr>          <dbl>           <dbl> <chr>        <dbl>
##  1      1 1-1   1-1-1       195.1831        189.6743 g3_fall   203.0107
##  2      1 1-1   1-1-1       195.1831        189.6743 g3_winter 202.4761
##  3      1 1-1   1-1-1       195.1831        189.6743 g3_spring 212.2639
##  4      1 1-1   1-1-1       195.1831        189.6743 g4_fall   205.3442
##  5      1 1-1   1-1-1       195.1831        189.6743 g4_winter 214.2586
##  6      1 1-1   1-1-1       195.1831        189.6743 g4_spring 220.2867
##  7      1 1-1   1-1-1       195.1831        189.6743 g5_fall   220.5970
##  8      1 1-1   1-1-1       195.1831        189.6743 g5_winter 220.9811
##  9      1 1-1   1-1-1       195.1831        189.6743 g5_spring 237.0075
## 10      1 1-1   1-1-2       195.1831        189.6743 g3_fall   195.4607
## # … with 202,490 more rows
```
…
```r
l <- left_join(l, wave_frame)
```

```
## Joining, by = "timepoint"
```

```r
l
```

```
## # A tibble: 202,500 x 8
## # Groups:   distid [100]
##    distid scid  sid   sch_mean_start dist_mean_start timepoint    score  wave
##     <dbl> <chr> <chr>          <dbl>           <dbl> <chr>        <dbl> <int>
##  1      1 1-1   1-1-1       195.1831        189.6743 g3_fall   203.0107     0
##  2      1 1-1   1-1-1       195.1831        189.6743 g3_winter 202.4761     1
##  3      1 1-1   1-1-1       195.1831        189.6743 g3_spring 212.2639     2
##  4      1 1-1   1-1-1       195.1831        189.6743 g4_fall   205.3442     3
##  5      1 1-1   1-1-1       195.1831        189.6743 g4_winter 214.2586     4
##  6      1 1-1   1-1-1       195.1831        189.6743 g4_spring 220.2867     5
##  7      1 1-1   1-1-1       195.1831        189.6743 g5_fall   220.5970     6
##  8      1 1-1   1-1-1       195.1831        189.6743 g5_winter 220.9811     7
##  9      1 1-1   1-1-1       195.1831        189.6743 g5_spring 237.0075     8
## 10      1 1-1   1-1-2       195.1831        189.6743 g3_fall   195.4607     0
## # … with 202,490 more rows
```
…
```r
library(tidyverse)
d <- read_csv(here::here("data", "cnlsy.csv"))
```

---
# Look at the data

```r
d
```

```
## # A tibble: 267 x 5
##       id  wave agegrp       age  piat
##    <dbl> <dbl>  <dbl>     <dbl> <dbl>
##  1     1     1    6.5  6           18
##  2     1     2    8.5  8.333333    35
##  3     1     3   10.5 10.33333     59
##  4     2     1    6.5  6           18
##  5     2     2    8.5  8.5         25
##  6     2     3   10.5 10.58333     28
##  7     3     1    6.5  6.083333    18
##  8     3     2    8.5  8.416667    23
##  9     3     3   10.5 10.41667     32
## 10     4     1    6.5  6           18
## # … with 257 more rows
```
…
---
# Solution
Just  multiply `age` by 12 to get it coded in months.

--

```r
d <- d %>% 
  mutate(age_months = age6 * 12)
d
```

```
## # A tibble: 267 x 9
##       id  wave agegrp       age  piat wave_c agegrp_c       age6 age_months
##    <dbl> <dbl>  <dbl>     <dbl> <dbl>  <dbl>    <dbl>      <dbl>      <dbl>
##  1     1     1    6.5  6           18      0        0 0            0       
##  2     1     2    8.5  8.333333    35      1        2 2.333333    28       
##  3     1     3   10.5 10.33333     59      2        4 4.333333    52       
##  4     2     1    6.5  6           18      0        0 0            0       
##  5     2     2    8.5  8.5         25      1        2 2.5         30       
##  6     2     3   10.5 10.58333     28      2        4 4.583333    55       
##  7     3     1    6.5  6.083333    18      0        0 0.08333333   1.000000
##  8     3     2    8.5  8.416667    23      1        2 2.416667    29       
##  9     3     3   10.5 10.41667     32      2        4 4.416667    53       
## 10     4     1    6.5  6           18      0        0 0            0       
## # … with 257 more rows
```
…
---
# The data
Simulated data to mimic a common form of non-linearity.

Notice the "true" intercept and slope for each student is actually in the data.

```r
sim_d <- read_csv(here::here("data", "curvilinear-sim.csv"))
sim_d
```

```
## # A tibble: 2,760 x 5
##      sid      int    slope date           score
##    <dbl>    <dbl>    <dbl> <date>         <dbl>
##  1     1 31.91237 32.25614 2019-04-26 116.1638 
##  2     1 31.91237 32.25614 2019-04-14  50.02688
##  3     1 31.91237 32.25614 2019-05-21 151.8375 
##  4     2 22.91502 24.05294 2019-04-25  81.93698
##  5     2 22.91502 24.05294 2019-04-30  93.47374
##  6     2 22.91502 24.05294 2019-05-24 113.8067 
##  7     2 22.91502 24.05294 2019-04-27  87.83396
##  8     2 22.91502 24.05294 2019-05-29 112.8697 
##  9     2 22.91502 24.05294 2019-04-25  82.40156
## 10     2 22.91502 24.05294 2019-05-27 111.8477 
## # … with 2,750 more rows
```
…
```
## # A tibble: 56 x 5
##    days_from_start days2   sid pred_linear pred_quad
##              <int> <dbl> <dbl>       <dbl>     <dbl>
##  1               0     0  -999    68.65771  52.09304
##  2               1     1  -999    69.87886  55.04428
##  3               2     4  -999    71.10000  57.93071
##  4               3     9  -999    72.32114  60.75233
##  5               4    16  -999    73.54228  63.50914
##  6               5    25  -999    74.76342  66.20114
##  7               6    36  -999    75.98456  68.82834
##  8               7    49  -999    77.20570  71.39072
##  9               8    64  -999    78.42684  73.88829
## 10               9    81  -999    79.64798  76.32105
## # … with 46 more rows
```
…
