An introduction to Bayesian estimation
…
---
# The data
From an example in the Mplus manual. I made up the column names. 

01:30

```r
mplus_d <- read_csv(here::here("data", "mplus920.csv"))
mplus_d
```

```
## # A tibble: 7,500 x 6
##        score  baseline sch_treatment  dist_ses schid distid
##        <dbl>     <dbl>         <dbl>     <dbl> <dbl>  <dbl>
##  1  5.559216  1.383101             1 -0.642262     1      1
##  2 -0.107394 -0.789654             1 -0.642262     1      1
##  3  0.049476 -0.760867             1 -0.642262     1      1
##  4 -2.387703 -0.798527             1 -0.642262     1      1
##  5  1.180393 -0.411377             1 -0.642262     1      1
##  6  3.959005 -0.987154             1 -0.642262     2      1
##  7 -0.895792 -1.966773             1 -0.642262     2      1
##  8  2.879087  0.42117              1 -0.642262     2      1
##  9  5.611088  1.67047              1 -0.642262     2      1
## 10  2.828119  0.001154             1 -0.642262     2      1
## # … with 7,490 more rows
```
…
---
# Observe 1 data point

```r
grid <- grid %>% 
  mutate(likelihood = dnorm(true_data[1], possible_mean, 2))
grid
```

```
## # A tibble: 151 x 3
##    possible_mean       prior   likelihood
##            <dbl>       <dbl>        <dbl>
##  1          -3   0.003477802 0.0001973758
##  2          -2.9 0.003674439 0.0002374240
##  3          -2.8 0.003877883 0.0002848850
##  4          -2.7 0.004088046 0.0003409800
##  5          -2.6 0.004304813 0.0004071013
##  6          -2.5 0.004528041 0.0004848308
##  7          -2.4 0.004757554 0.0005759600
##  8          -2.3 0.004993151 0.0006825094
##  9          -2.2 0.005234594 0.0008067505
## 10          -2.1 0.005481619 0.0009512268
## # … with 141 more rows
```
…
