Multilevel logistic regression
…
```r
wages <- wages %>% 
  mutate(
    high_wage = ifelse(
      hourly_wage > mean(hourly_wage, na.rm = TRUE), 1, 0
    )
  )

wages %>% 
  select(id, hourly_wage, high_wage)
```

```
## # A tibble: 6,402 x 3
##       id hourly_wage high_wage
##    <dbl>       <dbl>     <dbl>
##  1    31    4.441535         0
##  2    31    4.191254         0
##  3    31    4.344888         0
##  4    31    5.748851         0
##  5    31    6.896403         0
##  6    31    5.523435         0
##  7    31    8.052640         1
##  8    31    8.406456         1
##  9    36    7.257243         0
## 10    36    6.037560         0
## # … with 6,392 more rows
```
…
# Multilevel logistic regression

---
# The data
Polling data from the 1988 election.

```r
polls <- rio::import(here::here("data", "polls.dta"),
                     setclass = "tbl_df")
polls
```

```
## # A tibble: 13,544 x 10
##      org  year survey  bush state   edu   age female black weight
##    <dbl> <dbl>  <dbl> <dbl> <dbl> <dbl> <dbl>  <dbl> <dbl>  <dbl>
##  1     1     1      1     1     7     2     2      1     0   1403
##  2     1     1      1     1    33     4     3      0     0    778
##  3     1     1      1     0    20     2     1      1     0   1564
##  4     1     1      1     1    31     3     2      1     0   1055
##  5     1     1      1     1    18     3     1      1     0   1213
##  6     1     1      1     1    31     4     2      0     0    910
##  7     1     1      1     1    40     1     3      0     0    735
##  8     1     1      1     1    33     4     2      1     0    410
##  9     1     1      1     0    22     4     2      1     0    410
## 10     1     1      1     1    22     4     3      0     0    778
## # … with 13,534 more rows
```
…
* The average log odds of supporting bush was 0.25

* This average varied between states with a standard deviation of 0.34

---
# State-level variation

```r
library(broom.mixed)
m0_tidied <- tidy(m0, effects = "ran_vals", conf.int = TRUE)
m0_tidied
```

```
## # A tibble: 49 x 8
##    effect   group level term           estimate  std.error    conf.low
##    <chr>    <chr> <chr> <chr>             <dbl>      <dbl>       <dbl>
##  1 ran_vals state 1     (Intercept)  0.5201836  0.1526301   0.2210341 
##  2 ran_vals state 3     (Intercept)  0.09438107 0.1424292  -0.1847750 
##  3 ran_vals state 4     (Intercept)  0.06905650 0.1737493  -0.2714859 
##  4 ran_vals state 5     (Intercept)  0.03522421 0.05570977 -0.07396493
##  5 ran_vals state 6     (Intercept)  0.1045418  0.1513626  -0.1921233 
##  6 ran_vals state 7     (Intercept) -0.1015410  0.1546380  -0.4046260 
##  7 ran_vals state 8     (Intercept) -0.3824312  0.2376744  -0.8482644 
##  8 ran_vals state 9     (Intercept) -0.6229779  0.2931982  -1.197636  
##  9 ran_vals state 10    (Intercept)  0.3027001  0.07975137  0.1463903 
## 10 ran_vals state 11    (Intercept)  0.09282107 0.1173420  -0.1371651 
## # … with 39 more rows, and 1 more variable: conf.high <dbl>
```
…
