More Bayes
…
* Fitting multilevel logistic regression models with **brms**

* Plotting **brms** fits

---
# Popular data

```r
popular <- read_csv(here::here("data", "popularity.csv"))
popular
```

```
## # A tibble: 2,000 x 7
##    pupil class extrav sex    texp popular popteach
##    <dbl> <dbl>  <dbl> <chr> <dbl>   <dbl>    <dbl>
##  1     1     1      5 girl     24     6.3        6
##  2     2     1      7 boy      24     4.9        5
##  3     3     1      4 girl     24     5.3        6
##  4     4     1      3 girl     24     4.7        5
##  5     5     1      5 girl     24     6          6
##  6     6     1      4 boy      24     4.7        5
##  7     7     1      5 boy      24     5.9        5
##  8     8     1      4 boy      24     4.2        5
##  9     9     1      5 boy      24     5.2        5
## 10    10     1      5 boy      24     3.9        3
## # … with 1,990 more rows
```
…
---
# New data
Lung cancer data: Patients nested in doctors

```r
hdp <- read_csv("https://stats.idre.ucla.edu/stat/data/hdp.csv") %>% 
  janitor::clean_names() %>% 
  select(did, tumorsize, pain, lungcapacity, age, remission)
hdp
```

```
## # A tibble: 8,525 x 6
##      did tumorsize  pain lungcapacity      age remission
##    <dbl>     <dbl> <dbl>        <dbl>    <dbl>     <dbl>
##  1     1  67.98120     4    0.8010882 64.96824         0
##  2     1  64.70246     2    0.3264440 53.91714         0
##  3     1  51.56700     6    0.5650309 53.34730         0
##  4     1  86.43799     3    0.8484109 41.36804         0
##  5     1  53.40018     3    0.8864910 46.80042         0
##  6     1  51.65727     4    0.7010307 51.92936         0
##  7     1  78.91707     3    0.8908539 53.82926         0
##  8     1  69.83325     3    0.6608795 46.56223         0
##  9     1  62.85259     4    0.9088714 54.38936         0
## 10     1  71.77790     5    0.9593268 50.54465         0
## # … with 8,515 more rows
```
…
```r
library(tidybayes)
pred_tumor <- expand.grid(
    age = 20:80,
    lungcapacity = mean(hdp$lungcapacity),
    tumorsize = 30:120,
    did = -999
  ) %>% 
  add_fitted_draws(model = lc, n = 100,
                   allow_new_levels = TRUE)
pred_tumor
```

```
## # A tibble: 555,100 x 9
## # Groups:   age, lungcapacity, tumorsize, did, .row [5,551]
##      age lungcapacity tumorsize   did  .row .chain .iteration .draw    .value
##    <int>        <dbl>     <int> <dbl> <int>  <int>      <int> <int>     <dbl>
##  1    20    0.7740865        30  -999     1     NA         NA   295 0.6824989
##  2    20    0.7740865        30  -999     1     NA         NA   298 0.6587606
##  3    20    0.7740865        30  -999     1     NA         NA   370 0.9846339
##  4    20    0.7740865        30  -999     1     NA         NA   435 0.5601509
##  5    20    0.7740865        30  -999     1     NA         NA   472 0.7661789
##  6    20    0.7740865        30  -999     1     NA         NA   481 0.5415221
##  7    20    0.7740865        30  -999     1     NA         NA   558 0.7101885
##  8    20    0.7740865        30  -999     1     NA         NA   574 0.2391725
##  9    20    0.7740865        30  -999     1     NA         NA   578 0.2360355
## 10    20    0.7740865        30  -999     1     NA         NA   591 0.9559996
## # … with 555,090 more rows
```
…
---

```r
pred_age_doctor
```

```
## # A tibble: 54,900 x 9
## # Groups:   did, age, tumorsize, lungcapacity, .row [549]
##      did   age tumorsize lungcapacity  .row .chain .iteration .draw
##    <dbl> <int>     <dbl>        <dbl> <int>  <int>      <int> <int>
##  1     1    20  70.88067    0.7740865     1     NA         NA    31
##  2     1    20  70.88067    0.7740865     1     NA         NA    39
##  3     1    20  70.88067    0.7740865     1     NA         NA    48
##  4     1    20  70.88067    0.7740865     1     NA         NA    96
##  5     1    20  70.88067    0.7740865     1     NA         NA   100
##  6     1    20  70.88067    0.7740865     1     NA         NA   113
##  7     1    20  70.88067    0.7740865     1     NA         NA   117
##  8     1    20  70.88067    0.7740865     1     NA         NA   158
##  9     1    20  70.88067    0.7740865     1     NA         NA   214
## 10     1    20  70.88067    0.7740865     1     NA         NA   311
## # … with 54,890 more rows, and 1 more variable: .value <dbl>
```
…
---
# Get all draws
Let's look at the intercept

```r
int <- lc %>% 
  spread_draws(b_Intercept)
int
```

```
## # A tibble: 4,000 x 4
##    .chain .iteration .draw b_Intercept
##     <int>      <int> <int>       <dbl>
##  1      1          1     1    2.71656 
##  2      1          2     2    4.20511 
##  3      1          3     3    2.29535 
##  4      1          4     4    3.07332 
##  5      1          5     5    4.28472 
##  6      1          6     6    2.24793 
##  7      1          7     7    4.5452  
##  8      1          8     8    0.796449
##  9      1          9     9    1.10624 
## 10      1         10    10    1.89963 
## # … with 3,990 more rows
```
…
---
# Grab random effects

* The random effect name is `r_did`

* We use brackets to assign new names

```r
spread_draws(lc, r_did[did, term])
```

```
## # A tibble: 1,628,000 x 6
## # Groups:   did, term [407]
##      did term          r_did .chain .iteration .draw
##    <int> <chr>         <dbl>  <int>      <int> <int>
##  1     1 Intercept -3.0229        1          1     1
##  2     1 Intercept -1.74345       1          2     2
##  3     1 Intercept -5.47016       1          3     3
##  4     1 Intercept -0.561637      1          4     4
##  5     1 Intercept -4.68276       1          5     5
##  6     1 Intercept -1.02352       1          6     6
##  7     1 Intercept -3.5834        1          7     7
##  8     1 Intercept -2.75596       1          8     8
##  9     1 Intercept -2.28068       1          9     9
## 10     1 Intercept -2.12253       1         10    10
## # … with 1,627,990 more rows
```
…
---
# Long format

Use `gather_draws()` to return a long format, suitable for plotting (and many other things)

```r
fixed_l <- lc %>% 
  gather_draws(b_Intercept, b_age, b_tumorsize, b_lungcapacity, 
               `b_age:tumorsize`)
fixed_l
```

```
## # A tibble: 20,000 x 5
## # Groups:   .variable [5]
##    .chain .iteration .draw .variable     .value
##     <int>      <int> <int> <chr>          <dbl>
##  1      1          1     1 b_Intercept 2.71656 
##  2      1          2     2 b_Intercept 4.20511 
##  3      1          3     3 b_Intercept 2.29535 
##  4      1          4     4 b_Intercept 3.07332 
##  5      1          5     5 b_Intercept 4.28472 
##  6      1          6     6 b_Intercept 2.24793 
##  7      1          7     7 b_Intercept 4.5452  
##  8      1          8     8 b_Intercept 0.796449
##  9      1          9     9 b_Intercept 1.10624 
## 10      1         10    10 b_Intercept 1.89963 
## # … with 19,990 more rows
```
…
---
# Fixed effects

Not really "fixed", but rather just average relation

```r
fe <- lc %>% 
  spread_draws(b_Intercept, b_age, b_tumorsize, b_lungcapacity, 
               `b_age:tumorsize`)
fe
```

```
## # A tibble: 4,000 x 8
##    .chain .iteration .draw b_Intercept      b_age  b_tumorsize b_lungcapacity
##     <int>      <int> <int>       <dbl>      <dbl>        <dbl>          <dbl>
##  1      1          1     1    2.71656  -0.0705399  -2.03108e-2      0.265419 
##  2      1          2     2    4.20511  -0.099448   -4.21165e-2      0.0832043
##  3      1          3     3    2.29535  -0.0546174  -1.32831e-2      0.270012 
##  4      1          4     4    3.07332  -0.0844623  -3.4302 e-2      0.328449 
##  5      1          5     5    4.28472  -0.0996404  -4.20281e-2      0.202761 
##  6      1          6     6    2.24793  -0.0580755  -1.31931e-2      0.174989 
##  7      1          7     7    4.5452   -0.103602   -4.22678e-2     -0.0984124
##  8      1          8     8    0.796449 -0.026492    1.25579e-2     -0.253396 
##  9      1          9     9    1.10624  -0.0412785  -3.64035e-3      0.257915 
## 10      1         10    10    1.89963  -0.0491901  -2.99624e-5      0.0917631
## # … with 3,990 more rows, and 1 more variable: b_age:tumorsize <dbl>
```
…
--

```r
did12_wider <- did12 %>% 
  mutate(.chain = rep(rep(1:4, each = 1000), 2),
         .draw = rep(1:1000, 8)) %>% 
  pivot_wider(names_from = "did", values_from = "pred")

did12_wider
```

```
## # A tibble: 4,000 x 4
##    .chain .draw       `1`       `2`
##     <int> <int>     <dbl>     <dbl>
##  1      1     1 -3.308853 0.4307436
##  2      1     2 -2.066416 1.014934 
##  3      1     3 -5.778923 0.4383612
##  4      1     4 -1.077742 0.2885519
##  5      1     5 -4.958159 0.3001608
##  6      1     6 -1.402353 0.3330352
##  7      1     7 -3.848260 0.2469467
##  8      1     8 -3.244246 0.8343543
##  9      1     9 -2.809818 0.1763041
## 10      1    10 -2.350164 0.8357758
## # … with 3,990 more rows
```

---
# Compute difference

```r
did12_wider <- did12_wider %>% 
  mutate(diff = `2` - `1`)

did12_wider
```

```
## # A tibble: 4,000 x 5
##    .chain .draw       `1`       `2`     diff
##     <int> <int>     <dbl>     <dbl>    <dbl>
##  1      1     1 -3.308853 0.4307436 3.739597
##  2      1     2 -2.066416 1.014934  3.08135 
##  3      1     3 -5.778923 0.4383612 6.217284
##  4      1     4 -1.077742 0.2885519 1.366294
##  5      1     5 -4.958159 0.3001608 5.25832 
##  6      1     6 -1.402353 0.3330352 1.735388
##  7      1     7 -3.848260 0.2469467 4.095207
##  8      1     8 -3.244246 0.8343543 4.0786  
##  9      1     9 -2.809818 0.1763041 2.986122
## 10      1    10 -2.350164 0.8357758 3.18594 
## # … with 3,990 more rows
```
…
```r
did3 <- filter(dids, did == 3)
pred_did3 <- pop_level + did3$r_did

did23 <- did12_wider %>% 
  select(-`1`, -diff) %>% 
  mutate(`3` = pred_did3,
         diff = `3` - `2`)
did23
```

```
## # A tibble: 4,000 x 5
##    .chain .draw       `2`        `3`       diff
##     <int> <int>     <dbl>      <dbl>      <dbl>
##  1      1     1 0.4307436 2.475167    2.044423 
##  2      1     2 1.014934  1.108304    0.093370 
##  3      1     3 0.4383612 1.793237    1.354876 
##  4      1     4 0.2885519 0.6536849   0.3651330
##  5      1     5 0.3001608 2.383981    2.08382  
##  6      1     6 0.3330352 1.562827    1.229792 
##  7      1     7 0.2469467 0.6939357   0.446989 
##  8      1     8 0.8343543 0.8729243   0.03857  
##  9      1     9 0.1763041 0.06621309 -0.110091 
## 10      1    10 0.8357758 0.7470808  -0.088695 
## # … with 3,990 more rows
```
…
So there's roughly an 87% chance that the odds of remission are higher with with `did` 3 than 2.

---
# Plot data

```r
pd23 <- did23 %>% 
  pivot_longer(`2`:diff, 
               names_to = "Distribution",
               values_to = "Log-Odds")
pd23
```

```
## # A tibble: 12,000 x 4
##    .chain .draw Distribution `Log-Odds`
##     <int> <int> <chr>             <dbl>
##  1      1     1 2             0.4307436
##  2      1     1 3             2.475167 
##  3      1     1 diff          2.044423 
##  4      1     2 2             1.014934 
##  5      1     2 3             1.108304 
##  6      1     2 diff          0.093370 
##  7      1     3 2             0.4383612
##  8      1     3 3             1.793237 
##  9      1     3 diff          1.354876 
## 10      1     4 2             0.2885519
## # … with 11,990 more rows
```
…
